304.96	2.48596
305.803	2.47473
309.118	2.46069
312.44	2.44291
314.929	2.43074
318.249	2.4139
320.739	2.40173
324.876	2.38769
327.367	2.37458
330.682	2.36055
334.815	2.34931
340.602	2.33246
344.745	2.31561
350.522	2.30438
357.125	2.29127
361.252	2.28284
366.2	2.27534
373.629	2.26036
377.753	2.2538
382.704	2.24444
387.65	2.23788
392.596	2.23132
397.542	2.22477
404.14	2.21446
409.909	2.2079
415.676	2.20228
421.443	2.19665
428.032	2.19103
433.799	2.1854
440.386	2.18071
446.974	2.17602
454.385	2.1704
460.15	2.16571
467.56	2.16102
473.325	2.15633
481.554	2.15351
488.142	2.14882
495.55	2.14506
502.137	2.14037
508.723	2.13662
515.307	2.1338
523.538	2.13004
530.122	2.12722
537.527	2.12534
544.935	2.12158
552.341	2.11876
559.748	2.11594
567.973	2.11499
573.733	2.11311
581.142	2.10935
586.9	2.1084
592.66	2.10652
600.063	2.10557
607.468	2.10369
616.519	2.10086
623.922	2.09991
631.325	2.09896
637.909	2.09615
646.136	2.09426
653.539	2.09331
661.766	2.09142
669.992	2.09047
676.574	2.08859
681.512	2.08671
688.913	2.08669
696.318	2.08481
702.075	2.0848
709.479	2.08291
717.705	2.08196
731.688	2.08007
738.269	2.07912
745.67	2.0791
753.075	2.07722
759.656	2.07627
767.881	2.07532
774.459	2.07624
781.865	2.07342
789.268	2.07247
795.851	2.07059
