static const char *schema_str[] = {
"CREATE TABLE sessions ( sid INTEGER PRIMARY KEY NOT NULL, version INTEGER NOT NULL, fname TEXT NOT NULL, config TEXT NOT NULL)",
"CREATE TABLE species ( sid INTEGER NOT NULL REFERENCES sessions(sid) ON DELETE CASCADE, symbol TEXT NOT NULL, anum INTEGER NOT NULL, mass REAL NOT NULL)",
"CREATE TABLE levels ( sid INTEGER NOT NULL REFERENCES sessions(sid) ON DELETE CASCADE, id INTEGER NOT NULL, nele INTEGER NOT NULL, name TEXT NOT NULL, e REAL NOT NULL, g INTEGER NOT NULL, vn INTEGER NOT NULL, vl INTEGER NOT NULL, p INTEGER NOT NULL, ibase INTEGER, ncomplex TEXT NOT NULL, sname TEXT NOT NULL, PRIMARY KEY(sid, id))",
"CREATE TABLE rtransitions ( sid INTEGER NOT NULL REFERENCES sessions(sid) ON DELETE CASCADE, ini_id INTEGER NOT NULL, fin_id INTEGER NOT NULL, mpole INTEGER NOT NULL, rme REAL NOT NULL, mode INTEGER NOT NULL, FOREIGN KEY(sid, ini_id) REFERENCES levels(sid, id) ON DELETE CASCADE, FOREIGN KEY(sid, fin_id) REFERENCES levels(sid, id) ON DELETE CASCADE)",
"CREATE TABLE aitransitions ( sid INTEGER NOT NULL REFERENCES sessions(sid) ON DELETE CASCADE, ini_id INTEGER NOT NULL, fin_id INTEGER NOT NULL, rate REAL NOT NULL, FOREIGN KEY(sid, ini_id) REFERENCES levels(sid, id) ON DELETE CASCADE, FOREIGN KEY(sid, fin_id) REFERENCES levels(sid, id) ON DELETE CASCADE)",
"CREATE TABLE ctransitions ( cid INTEGER PRIMARY KEY AUTOINCREMENT NOT NULL, sid INTEGER NOT NULL REFERENCES sessions(sid) ON DELETE CASCADE, ini_id INTEGER NOT NULL, fin_id INTEGER NOT NULL, type INTEGER NOT NULL, qk_mode INTEGER NOT NULL, ap0 REAL NOT NULL, ap1 REAL NOT NULL, a_e REAL NOT NULL, FOREIGN KEY(sid, ini_id) REFERENCES levels(sid, id) ON DELETE CASCADE, FOREIGN KEY(sid, fin_id) REFERENCES levels(sid, id) ON DELETE CASCADE)",
"CREATE TABLE cstrengths ( cid INTEGER NOT NULL REFERENCES ctransitions(cid) ON DELETE CASCADE, e REAL NOT NULL, strength REAL NOT NULL)",
NULL};
